\relax 
\providecommand\hyper@newdestlabel[2]{}
\providecommand\zref@newlabel[2]{}
\providecommand\HyperFirstAtBeginDocument{\AtBeginDocument}
\HyperFirstAtBeginDocument{\ifx\hyper@anchor\@undefined
\global\let\oldcontentsline\contentsline
\gdef\contentsline#1#2#3#4{\oldcontentsline{#1}{#2}{#3}}
\global\let\oldnewlabel\newlabel
\gdef\newlabel#1#2{\newlabelxx{#1}#2}
\gdef\newlabelxx#1#2#3#4#5#6{\oldnewlabel{#1}{{#2}{#3}}}
\AtEndDocument{\ifx\hyper@anchor\@undefined
\let\contentsline\oldcontentsline
\let\newlabel\oldnewlabel
\fi}
\fi}
\global\let\hyper@last\relax 
\gdef\HyperFirstAtBeginDocument#1{#1}
\providecommand*\HyPL@Entry[1]{}
\HyPL@Entry{0<</S/D>>}
\zref@newlabel{footdir@1}{\abspage{5}}
\zref@newlabel{footdir@3}{\abspage{5}}
\zref@newlabel{footdir@2}{\abspage{5}}
\citation{silberman}
\citation{box}
\citation{silberman}
\citation{silberman}
\citation{silberman}
\citation{silberman}
\citation{stFeature1}
\citation{stFeature2}
\@writefile{toc}{\contentsline {chapter}{\numberline {1}مقدمه}{11}{chapter.1}}
\@writefile{lof}{\addvspace {10\p@ }}
\@writefile{lot}{\addvspace {10\p@ }}
\@writefile{toc}{\contentsline {section}{\numberline {1-1}تعریف مسئله}{11}{section.1.1}}
\citation{urban}
\@writefile{toc}{\contentsline {section}{\numberline {1-2}فرضیات و مشکلات موجود}{12}{section.1.2}}
\@writefile{toc}{\contentsline {section}{\numberline {1-3}اهمیت موضوع}{13}{section.1.3}}
\@writefile{toc}{\contentsline {section}{\numberline {1-4}اهداف تحقیق}{13}{section.1.4}}
\@writefile{toc}{\contentsline {section}{\numberline {1-5}ساختار پایان‌نامه}{13}{section.1.5}}
\@writefile{toc}{\contentsline {chapter}{\numberline {2}ادبیات مربوطه}{14}{chapter.2}}
\@writefile{lof}{\addvspace {10\p@ }}
\@writefile{lot}{\addvspace {10\p@ }}
\@writefile{toc}{\contentsline {section}{\numberline {2-1}مفاهیم اولیه}{14}{section.2.1}}
\@writefile{toc}{\contentsline {subsection}{\numberline {2-1-1}شبکه های عصبی مصنوعی}{14}{subsection.2.1.1}}
\citation{silberman}
\citation{recognition}
\citation{instance}
\@writefile{lof}{\contentsline {figure}{\numberline {2-1}{\ignorespaces مثالی از یک شبکه‌ی عصبی مصنوعی، این شبکه دارای سه لایه‌ی ورودی، پنهان و خروجی است \relax }}{15}{figure.caption.4}}
\providecommand*\caption@xref[2]{\@setref\relax\@undefined{#1}}
\newlabel{شکل:مثال شبکه‌ی عصبی مصنوعی}{{2-1}{15}{مثالی از یک شبکه‌ی عصبی مصنوعی، این شبکه دارای سه لایه‌ی ورودی، پنهان و خروجی است \relax }{figure.caption.4}{}}
\@writefile{toc}{\contentsline {subsection}{\numberline {2-1-2}شبکه های عصبی همگشتی}{15}{subsection.2.1.2}}
\@writefile{toc}{\contentsline {section}{\numberline {2-2}کارهای پیشین}{15}{section.2.2}}
\@writefile{toc}{\contentsline {subsection}{\numberline {2-2-1}قطعه‌بندی معنایی و استنتاج روابط پشتیبانی، سیلبرمن}{15}{subsection.2.2.1}}
\citation{silberman}
\citation{silberman}
\citation{box}
\@writefile{lof}{\contentsline {figure}{\numberline {2-2}{\ignorespaces نمای کلی از یک شبکه‌ی عصبی همگشتی، همان طور که مشاهده می‌شود هر عصب از هر لایه از یک محدوده از عصب های لایه‌ی قبل برای تصمیم‌گیری استفاده می‌کند\relax }}{16}{figure.caption.5}}
\newlabel{شکل:مثال شبکه‌ی عصبی همگشتی}{{2-2}{16}{نمای کلی از یک شبکه‌ی عصبی همگشتی، همان طور که مشاهده می‌شود هر عصب از هر لایه از یک محدوده از عصب های لایه‌ی قبل برای تصمیم‌گیری استفاده می‌کند\relax }{figure.caption.5}{}}
\@writefile{toc}{\contentsline {subsection}{\numberline {2-2-2}استدلال سه بعدی به وسیله‌ی بلاک ها، پشتیبانی و پایداری‌ (Zhaoyin Jia)}{16}{subsection.2.2.2}}
\citation{box}
\citation{box}
\@writefile{lof}{\contentsline {figure}{\numberline {2-3}{\ignorespaces مسیر اجرای روش سیلبرمن از استخراج سطوح تا پیشبینی نوع ساختاری نواحی و روابط میان آن ها\cite  {silberman}\relax }}{17}{figure.caption.6}}
\newlabel{شکل:مسیر اجرای روش سیلبرمن}{{2-3}{17}{مسیر اجرای روش سیلبرمن از استخراج سطوح تا پیشبینی نوع ساختاری نواحی و روابط میان آن ها\cite {silberman}\relax }{figure.caption.6}{}}
\@writefile{toc}{\contentsline {section}{\numberline {2-3}جمع بندی}{17}{section.2.3}}
\@writefile{lof}{\contentsline {figure}{\numberline {2-4}{\ignorespaces مسیر اجرای روش Jia از قطعه‌بندی اولیه تا خروجی\cite  {box}\relax }}{18}{figure.caption.7}}
\newlabel{شکل:مسیر اجرای روش Jia}{{2-4}{18}{مسیر اجرای روش Jia از قطعه‌بندی اولیه تا خروجی\cite {box}\relax }{figure.caption.7}{}}
\citation{silberman}
\citation{silberman}
\citation{silberman}
\@writefile{toc}{\contentsline {chapter}{\numberline {3}روش های پیشنهادی}{19}{chapter.3}}
\@writefile{lof}{\addvspace {10\p@ }}
\@writefile{lot}{\addvspace {10\p@ }}
\@writefile{toc}{\contentsline {section}{\numberline {3-1}بهبود پیشبینی های میانی}{19}{section.3.1}}
\@writefile{toc}{\contentsline {subsection}{\numberline {3-1-1}روش اولیه}{19}{subsection.3.1.1}}
\citation{silberman}
\citation{silberman}
\@writefile{toc}{\contentsline {subsection}{\numberline {3-1-2}روش‌های بهبود}{20}{subsection.3.1.2}}
\@writefile{lof}{\contentsline {figure}{\numberline {3-1}{\ignorespaces شمای روش اول \relax }}{21}{figure.caption.8}}
\newlabel{شکل:روش اول}{{3-1}{21}{شمای روش اول \relax }{figure.caption.8}{}}
\@writefile{toc}{\contentsline {section}{\numberline {3-2}خصیصه‌های شبکه‌های عمیق}{21}{section.3.2}}
\@writefile{toc}{\contentsline {subsection}{\numberline {3-2-1}خصیصه‌ها}{21}{subsection.3.2.1}}
\@writefile{toc}{\contentsline {subsection}{\numberline {3-2-2}مدل‌ها}{21}{subsection.3.2.2}}
\@writefile{lot}{\contentsline {table}{\numberline {3-1}{\ignorespaces جدول دقت پیشبینی یک مدل با سه نوع مختلف پیش‌پردازش بدون استفاده از خصیصه‌های سیلبرمن\relax }}{22}{table.caption.9}}
\newlabel{جدول:دقت پیش‌پردازش‌های مختلف}{{3-1}{22}{جدول دقت پیشبینی یک مدل با سه نوع مختلف پیش‌پردازش بدون استفاده از خصیصه‌های سیلبرمن\relax }{table.caption.9}{}}
\@writefile{toc}{\contentsline {subsection}{\numberline {3-2-3}روش‌های پیش‌پردازش تصاویر}{22}{subsection.3.2.3}}
\@writefile{lof}{\contentsline {figure}{\numberline {3-2}{\ignorespaces نمای پیش‌پردازش نوع سوم، برای مشخص کردن یک ناحیه در همه‌ی موارد از این پیش‌پردازش استفاده می‌شود \relax }}{23}{figure.caption.10}}
\newlabel{شکل:پردازش سوم}{{3-2}{23}{نمای پیش‌پردازش نوع سوم، برای مشخص کردن یک ناحیه در همه‌ی موارد از این پیش‌پردازش استفاده می‌شود \relax }{figure.caption.10}{}}
\@writefile{lof}{\contentsline {figure}{\numberline {3-3}{\ignorespaces نمای پیش‌پردازش نوع اول، از آن جا که برای مشخص کردن دو ناحیه روش سوم پاسخ گو نیست، برای استخراج خصیصه‌ های روابط میان دو ناحیه از روش پیش پردازش اول استفاده می شود\relax }}{24}{figure.caption.11}}
\newlabel{شکل:پردازش اول}{{3-3}{24}{نمای پیش‌پردازش نوع اول، از آن جا که برای مشخص کردن دو ناحیه روش سوم پاسخ گو نیست، برای استخراج خصیصه‌ های روابط میان دو ناحیه از روش پیش پردازش اول استفاده می شود\relax }{figure.caption.11}{}}
\@writefile{toc}{\contentsline {subsection}{\numberline {3-2-4}فهرست خصیصه‌های تولید شده}{24}{subsection.3.2.4}}
\@writefile{lot}{\contentsline {table}{\numberline {3-2}{\ignorespaces جدول شرح انواع خصیصه‌های استفاده شده\relax }}{24}{table.caption.12}}
\newlabel{جدول:انواع خصیصه‌های مختلف}{{3-2}{24}{جدول شرح انواع خصیصه‌های استفاده شده\relax }{table.caption.12}{}}
\citation{silberman}
\@writefile{lof}{\contentsline {figure}{\numberline {3-4}{\ignorespaces شمای روش دوم - پیشبینی نوع ساختار \relax }}{25}{figure.caption.13}}
\newlabel{شکل:روش دوم ساختار}{{3-4}{25}{شمای روش دوم - پیشبینی نوع ساختار \relax }{figure.caption.13}{}}
\@writefile{lof}{\contentsline {figure}{\numberline {3-5}{\ignorespaces شمای روش دوم - پیشبینی روابط \relax }}{25}{figure.caption.14}}
\newlabel{شکل:روش دوم پیشبینی روابط}{{3-5}{25}{شمای روش دوم - پیشبینی روابط \relax }{figure.caption.14}{}}
\@writefile{toc}{\contentsline {section}{\numberline {3-3}جمع بندی}{26}{section.3.3}}
\citation{silberman}
\citation{dataset}
\citation{dataset2}
\citation{silberman}
\citation{silberman}
\citation{silberman}
\@writefile{toc}{\contentsline {chapter}{\numberline {4}نتایج تجربی}{27}{chapter.4}}
\@writefile{lof}{\addvspace {10\p@ }}
\@writefile{lot}{\addvspace {10\p@ }}
\@writefile{toc}{\contentsline {section}{\numberline {4-1}مجموعه‌های داده}{27}{section.4.1}}
\zref@newlabel{footdir@4}{\abspage{27}}
\zref@newlabel{footdir@6}{\abspage{27}}
\zref@newlabel{footdir@5}{\abspage{27}}
\@writefile{lof}{\contentsline {figure}{\numberline {4-1}{\ignorespaces نمایش مجموعه داده‌ی nyu-v2 \cite  {silberman}\relax }}{28}{figure.caption.15}}
\newlabel{شکل:نمایش مجموعه داده}{{4-1}{28}{نمایش مجموعه داده‌ی nyu-v2 \cite {silberman}\relax }{figure.caption.15}{}}
\@writefile{toc}{\contentsline {section}{\numberline {4-2}دقت بهبودهای مختلف روش اول}{28}{section.4.2}}
\@writefile{toc}{\contentsline {section}{\numberline {4-3}مقایسه ی روش شبکه‌های عمیق}{28}{section.4.3}}
\@writefile{lot}{\contentsline {table}{\numberline {4-1}{\ignorespaces جدول دقت مدل های مختلف در تعیین نوع ساختار یک ناحیه با استفاده از خصیصه‌های نوع ساختار\relax }}{29}{table.caption.16}}
\newlabel{جدول:دقت مدل های نوع ساختار}{{4-1}{29}{جدول دقت مدل های مختلف در تعیین نوع ساختار یک ناحیه با استفاده از خصیصه‌های نوع ساختار\relax }{table.caption.16}{}}
\@writefile{lot}{\contentsline {table}{\numberline {4-2}{\ignorespaces مقایسه‌ی دقت یک classifier یکسان برروی خصیصه‌های مختلف استخراج شده از شبکه های عمیق\relax }}{29}{table.caption.17}}
\newlabel{جدول:مقایسه‌ی خصیصه‌های مختلف}{{4-2}{29}{مقایسه‌ی دقت یک classifier یکسان برروی خصیصه‌های مختلف استخراج شده از شبکه های عمیق\relax }{table.caption.17}{}}
\@writefile{toc}{\contentsline {section}{\numberline {4-4}جمع بندی}{29}{section.4.4}}
\@writefile{lot}{\contentsline {table}{\numberline {4-3}{\ignorespaces مقایسه‌ی زمان استخراج خصیصه‌های مختلف و اجرای روش های مختلف\relax }}{30}{table.caption.18}}
\newlabel{جدول:مقایسه‌ی خصیصه‌های مختلف}{{4-3}{30}{مقایسه‌ی زمان استخراج خصیصه‌های مختلف و اجرای روش های مختلف\relax }{table.caption.18}{}}
\@writefile{toc}{\contentsline {chapter}{\numberline {5}جمع بندی و راه کار های آتی}{31}{chapter.5}}
\@writefile{lof}{\addvspace {10\p@ }}
\@writefile{lot}{\addvspace {10\p@ }}
\citation{silberman}
\citation{silberman}
\citation{silberman}
\citation{silberman}
\citation{silberman}
\citation{silberman}
\citation{stFeature1}
\citation{stFeature2}
\citation{silberman}
\citation{stFeature1}
\citation{stFeature2}
\bibstyle{./styles/packages/unsrtabbrv}
\bibdata{bibs/full,bibs/refs}
\@writefile{toc}{\contentsline {chapter}{\numberline {آ}مطالب تکمیلی}{32}{appendix.Alph1}}
\@writefile{lof}{\addvspace {10\p@ }}
\@writefile{lot}{\addvspace {10\p@ }}
\@writefile{toc}{\contentsline {section}{\numberline {آ-1}جداول تکمیلی روش سیلبرمن}{32}{section.Alph1.1}}
\@writefile{toc}{\contentsline {section}{\numberline {آ-2}پیاده‌سازی}{32}{section.Alph1.2}}
\@writefile{lof}{\contentsline {figure}{\numberline {آ-1}{\ignorespaces خصیصه‌ های مربوط به قطعه‌بندی\cite  {silberman}\relax }}{33}{figure.caption.19}}
\newlabel{شکل:خصیصه‌های۱}{{آ-1}{33}{خصیصه‌ های مربوط به قطعه‌بندی\cite {silberman}\relax }{figure.caption.19}{}}
\@writefile{lof}{\contentsline {figure}{\numberline {آ-2}{\ignorespaces خصیصه‌ های مربوط به پیشبینی روابط\cite  {silberman}\relax }}{34}{figure.caption.20}}
\newlabel{شکل:خصیصه‌های۲}{{آ-2}{34}{خصیصه‌ های مربوط به پیشبینی روابط\cite {silberman}\relax }{figure.caption.20}{}}
\@writefile{lof}{\contentsline {figure}{\numberline {آ-3}{\ignorespaces خصیصه‌ های مربوط به پیشبینی نوع ساختار نواحی\cite  {silberman}،*: \cite  {stFeature1} **:\cite  {stFeature2}\relax }}{34}{figure.caption.21}}
\newlabel{شکل:خصیصه‌های۳}{{آ-3}{34}{خصیصه‌ های مربوط به پیشبینی نوع ساختار نواحی\cite {silberman}،*: \cite {stFeature1} **:\cite {stFeature2}\relax }{figure.caption.21}{}}
\bibcite{silberman}{1}
\bibcite{box}{2}
\bibcite{stFeature1}{3}
\bibcite{stFeature2}{4}
\bibcite{urban}{5}
\bibcite{recognition}{6}
\bibcite{instance}{7}
\bibcite{dataset}{8}
\bibcite{dataset2}{9}
\citation{silberman}
